{
  "/": {
    "src/components/atlas-app.js": {
      "crossorigin": "anonymous",
      "type": "script",
      "weight": 1
    },
    "src/components/my-view1.js": {
      "crossorigin": "anonymous",
      "type": "script",
      "weight": 1
    },
    "node_modules/@webcomponents/webcomponentsjs/webcomponents-loader.js": {
      "type": "script",
      "weight": 1
    }
  },
  "/view1": {
    "src/components/atlas-app.js": {
      "crossorigin": "anonymous",
      "type": "script",
      "weight": 1
    },
    "src/components/my-view1.js": {
      "crossorigin": "anonymous",
      "type": "script",
      "weight": 1
    },
    "node_modules/@webcomponents/webcomponentsjs/webcomponents-loader.js": {
      "type": "script",
      "weight": 1
    }
  },
  "/view2": {
    "src/components/atlas-app.js": {
      "crossorigin": "anonymous",
      "type": "script",
      "weight": 1
    },
    "src/components/my-view2.js": {
      "crossorigin": "anonymous",
      "type": "script",
      "weight": 1
    },
    "node_modules/@webcomponents/webcomponentsjs/webcomponents-loader.js": {
      "type": "script",
      "weight": 1
    }
  },
  "/view3": {
    "src/components/atlas-app.js": {
      "crossorigin": "anonymous",
      "type": "script",
      "weight": 1
    },
    "src/components/my-view3.js": {
      "crossorigin": "anonymous",
      "type": "script",
      "weight": 1
    },
    "node_modules/@webcomponents/webcomponentsjs/webcomponents-loader.js": {
      "type": "script",
      "weight": 1
    }
  }
}
